{
    "cordova-plugin-whitelist": {
        "source": {
            "type": "registry",
            "id": "cordova-plugin-whitelist@1"
        },
        "is_top_level": true,
        "variables": {}
    },
    "cordova-plugin-media-capture": {
        "source": {
            "type": "registry",
            "id": "cordova-plugin-media-capture@~1.2.0"
        },
        "is_top_level": true,
        "variables": {}
    },
    "cordova-plugin-file": {
        "source": {
            "type": "registry",
            "id": "cordova-plugin-file"
        },
        "is_top_level": false,
        "variables": {}
    },
    "cordova-plugin-compat": {
        "source": {
            "type": "registry",
            "id": "cordova-plugin-compat"
        },
        "is_top_level": false,
        "variables": {}
    },
    "cordova-plugin-speechrecognizer": {
        "source": {
            "type": "git",
            "url": "https://github.com/poiuytrez/SpeechRecognizer",
            "subdir": "."
        },
        "is_top_level": true,
        "variables": {}
    },
    "org.apache.cordova.speech.speechrecognition": {
        "source": {
            "type": "git",
            "url": "https://github.com/macdonst/SpeechRecognitionPlugin",
            "subdir": "."
        },
        "is_top_level": true,
        "variables": {}
    },
    "cordova-plugin-tts": {
        "source": {
            "type": "registry",
            "id": "cordova-plugin-tts"
        },
        "is_top_level": true,
        "variables": {}
    }
}